…
Não são consideradas frequências calculadas a partir de frequências
fenotípicas assumindo proporções Hardy-Weinberg, apenas as obtidas
diretamente.

``` r
alleles <- c("B*15:03", "A*24:02", "B*14:02", "B*46:01")

allele_freqs <- get_frequency(alleles) %>%
    drop_na()

allele_freqs
```

    # A tibble: 1,062 x 5
       allele  pop                                          f     n location        
       <fct>   <chr>                                    <dbl> <int> <chr>           
     1 A*24:02 American Samoa                           0.33     51 14_18_S_170_42_W
     2 A*24:02 Argentina Gran Chaco Eastern Toba        0.048   135 26_11_S_58_11_W 
     3 A*24:02 Argentina Gran Chaco Mataco Wichi        0.102    49 27_27_S_58_59_W 
     4 A*24:02 Argentina Gran Chaco Western Toba Pilaga 0        19 27_27_S_58_59_W 
     5 A*24:02 Argentina Rosario Toba                   0.035    86 32_57_S_60_39_W 
     6 A*24:02 Armenia combined Regions                 0.12    100 40_11_N_44_31_E 
     7 A*24:02 Australia Cape York Peninsula Aborigine  0.223   103 10_41_S_142_32_E
     8 A*24:02 Australia Groote Eylandt Aborigine       0.293    75 13_58_S_136_35_E
     9 A*24:02 Australia Kimberly Aborigine             0.083    41 15_46_S_128_44_E
    10 A*24:02 Australia New South Wales Caucasian      0.082   134 33_0_S_146_0_E  
    # … with 1,052 more rows
…
allele_freqs_tidy
```

    # A tibble: 1,062 x 6
       allele  pop                                          f     n   long   lat
       <fct>   <chr>                                    <dbl> <int>  <dbl> <dbl>
     1 A*24:02 American Samoa                           0.33     51 -171.  -14.3
     2 A*24:02 Argentina Gran Chaco Eastern Toba        0.048   135  -58.2 -26.2
     3 A*24:02 Argentina Gran Chaco Mataco Wichi        0.102    49  -59.0 -27.4
     4 A*24:02 Argentina Gran Chaco Western Toba Pilaga 0        19  -59.0 -27.4
     5 A*24:02 Argentina Rosario Toba                   0.035    86  -60.6 -33.0
     6 A*24:02 Armenia combined Regions                 0.12    100   44.5  40.2
     7 A*24:02 Australia Cape York Peninsula Aborigine  0.223   103  143.  -10.7
     8 A*24:02 Australia Groote Eylandt Aborigine       0.293    75  137.  -14.0
     9 A*24:02 Australia Kimberly Aborigine             0.083    41  129.  -15.8
    10 A*24:02 Australia New South Wales Caucasian      0.082   134  146   -33  
    # … with 1,052 more rows
…
